<?xml version="1.0" encoding="UTF-8"?>
<session version="1.0">
<refactoring comment="Copy element &apos;ckeditor&apos; to &apos;resources&apos;&#x0D;&#x0A;- Original project: &apos;shoppingmall_mvc_action&apos;&#x0D;&#x0A;- Destination element: &apos;resources&apos;&#x0D;&#x0A;- Original element: &apos;ckeditor&apos;" description="Copy folder" element1="WebContent/ckeditor" files="0" flags="589830" folders="1" id="org.eclipse.jdt.ui.copy" policy="org.eclipse.jdt.ui.copyResources" stamp="1602060530635" target="/springmvc/src/main/webapp/resources" units="0" version="1.0"/>
</session>