127.0.0.1 - - [29/Oct/2020:09:19:48 +0900] "GET / HTTP/1.1" 404 807
0:0:0:0:0:0:0:1 - - [29/Oct/2020:09:19:49 +0900] "GET /springmybatis/ HTTP/1.1" 404 825
0:0:0:0:0:0:0:1 - - [29/Oct/2020:09:19:49 +0900] "GET /favicon.ico HTTP/1.1" 404 818
127.0.0.1 - - [29/Oct/2020:09:22:46 +0900] "GET / HTTP/1.1" 404 807
127.0.0.1 - - [29/Oct/2020:09:24:39 +0900] "GET / HTTP/1.1" 404 807
0:0:0:0:0:0:0:1 - - [29/Oct/2020:09:25:01 +0900] "GET /springmybatis/invoice_insertform HTTP/1.1" 200 34676
0:0:0:0:0:0:0:1 - - [29/Oct/2020:09:25:01 +0900] "GET /springmybatis/css/bootstrap.css HTTP/1.1" 304 -
0:0:0:0:0:0:0:1 - - [29/Oct/2020:09:25:04 +0900] "GET /springmybatis/home HTTP/1.1" 200 3274
0:0:0:0:0:0:0:1 - - [29/Oct/2020:09:25:04 +0900] "GET /springmybatis/fonts/glyphicons-halflings-regular.woff2 HTTP/1.1" 404 721
0:0:0:0:0:0:0:1 - - [29/Oct/2020:09:25:04 +0900] "GET /springmybatis/fonts/glyphicons-halflings-regular.woff HTTP/1.1" 404 721
0:0:0:0:0:0:0:1 - - [29/Oct/2020:09:25:04 +0900] "GET /springmybatis/fonts/glyphicons-halflings-regular.ttf HTTP/1.1" 404 721
0:0:0:0:0:0:0:1 - - [29/Oct/2020:09:25:08 +0900] "GET /springmybatis/home HTTP/1.1" 200 3274
0:0:0:0:0:0:0:1 - - [29/Oct/2020:09:25:08 +0900] "GET /springmybatis/fonts/glyphicons-halflings-regular.woff2 HTTP/1.1" 404 721
0:0:0:0:0:0:0:1 - - [29/Oct/2020:09:25:08 +0900] "GET /springmybatis/fonts/glyphicons-halflings-regular.woff HTTP/1.1" 404 721
0:0:0:0:0:0:0:1 - - [29/Oct/2020:09:25:08 +0900] "GET /springmybatis/fonts/glyphicons-halflings-regular.ttf HTTP/1.1" 404 721
0:0:0:0:0:0:0:1 - - [29/Oct/2020:09:25:23 +0900] "GET /springmybatis/invoice_insertForm HTTP/1.1" 404 721
0:0:0:0:0:0:0:1 - - [29/Oct/2020:09:25:28 +0900] "GET /springmybatis/home HTTP/1.1" 200 3274
0:0:0:0:0:0:0:1 - - [29/Oct/2020:09:25:28 +0900] "GET /springmybatis/fonts/glyphicons-halflings-regular.woff2 HTTP/1.1" 404 721
0:0:0:0:0:0:0:1 - - [29/Oct/2020:09:25:28 +0900] "GET /springmybatis/fonts/glyphicons-halflings-regular.woff HTTP/1.1" 404 721
0:0:0:0:0:0:0:1 - - [29/Oct/2020:09:25:28 +0900] "GET /springmybatis/fonts/glyphicons-halflings-regular.ttf HTTP/1.1" 404 721
0:0:0:0:0:0:0:1 - - [29/Oct/2020:09:25:29 +0900] "GET /springmybatis/home HTTP/1.1" 200 3274
0:0:0:0:0:0:0:1 - - [29/Oct/2020:09:25:29 +0900] "GET /springmybatis/fonts/glyphicons-halflings-regular.woff2 HTTP/1.1" 404 721
0:0:0:0:0:0:0:1 - - [29/Oct/2020:09:25:29 +0900] "GET /springmybatis/fonts/glyphicons-halflings-regular.woff HTTP/1.1" 404 721
0:0:0:0:0:0:0:1 - - [29/Oct/2020:09:25:29 +0900] "GET /springmybatis/fonts/glyphicons-halflings-regular.ttf HTTP/1.1" 404 721
0:0:0:0:0:0:0:1 - - [29/Oct/2020:09:25:31 +0900] "GET /springmybatis/category_insertform HTTP/1.1" 200 3083
0:0:0:0:0:0:0:1 - - [29/Oct/2020:09:25:33 +0900] "GET /springmybatis/invoice_insertform HTTP/1.1" 200 34676
0:0:0:0:0:0:0:1 - - [29/Oct/2020:09:26:55 +0900] "GET /springmybatis/product_modal?product_name=R&parentsLowNo=1 HTTP/1.1" 200 6827
0:0:0:0:0:0:0:1 - - [29/Oct/2020:09:27:21 +0900] "GET /springmybatis/product_modal?product_name=R&parentsLowNo=1 HTTP/1.1" 200 6827
0:0:0:0:0:0:0:1 - - [29/Oct/2020:09:27:22 +0900] "GET /springmybatis/product_modal?product_name=R&parentsLowNo=1 HTTP/1.1" 200 6827
0:0:0:0:0:0:0:1 - - [29/Oct/2020:09:27:24 +0900] "GET /springmybatis/product_modal?product_name=R&parentsLowNo=1 HTTP/1.1" 200 6827
0:0:0:0:0:0:0:1 - - [29/Oct/2020:09:27:24 +0900] "GET /springmybatis/product_modal?product_name=R&parentsLowNo=1 HTTP/1.1" 200 6827
127.0.0.1 - - [29/Oct/2020:10:15:39 +0900] "GET / HTTP/1.1" 404 807
0:0:0:0:0:0:0:1 - - [29/Oct/2020:10:15:47 +0900] "GET /springmybatis/invoice_insertform HTTP/1.1" 200 34685
0:0:0:0:0:0:0:1 - - [29/Oct/2020:10:26:19 +0900] "GET /springmybatis/invoice_insertform HTTP/1.1" 200 34685
0:0:0:0:0:0:0:1 - - [29/Oct/2020:10:26:29 +0900] "GET /springmybatis/product_modal?product_name=R&parentsLowNo=1 HTTP/1.1" 200 6827
0:0:0:0:0:0:0:1 - - [29/Oct/2020:10:26:29 +0900] "GET /springmybatis/product_modal?product_name=R&parentsLowNo=1 HTTP/1.1" 200 6827
0:0:0:0:0:0:0:1 - - [29/Oct/2020:10:26:31 +0900] "GET /springmybatis/product_modal?product_name=R&parentsLowNo=1 HTTP/1.1" 200 6827
0:0:0:0:0:0:0:1 - - [29/Oct/2020:10:26:32 +0900] "GET /springmybatis/product_modal?product_name=R&parentsLowNo=1 HTTP/1.1" 200 6827
0:0:0:0:0:0:0:1 - - [29/Oct/2020:10:26:47 +0900] "POST /springmybatis/invoice_insert HTTP/1.1" 500 18996
0:0:0:0:0:0:0:1 - - [29/Oct/2020:10:30:05 +0900] "POST /springmybatis/invoice_insert HTTP/1.1" 500 18996
0:0:0:0:0:0:0:1 - - [29/Oct/2020:10:41:04 +0900] "POST /springmybatis/invoice_insert HTTP/1.1" 500 18996
0:0:0:0:0:0:0:1 - - [29/Oct/2020:10:46:16 +0900] "POST /springmybatis/invoice_insert HTTP/1.1" 500 18996
0:0:0:0:0:0:0:1 - - [29/Oct/2020:10:48:03 +0900] "GET /springmybatis/invoice_insertform HTTP/1.1" 200 34758
0:0:0:0:0:0:0:1 - - [29/Oct/2020:10:48:08 +0900] "GET /springmybatis/product_modal?product_name=R&parentsLowNo=1 HTTP/1.1" 200 6827
0:0:0:0:0:0:0:1 - - [29/Oct/2020:10:48:09 +0900] "GET /springmybatis/product_modal?product_name=R&parentsLowNo=1 HTTP/1.1" 200 6827
0:0:0:0:0:0:0:1 - - [29/Oct/2020:10:48:14 +0900] "POST /springmybatis/invoice_insert HTTP/1.1" 500 18996
0:0:0:0:0:0:0:1 - - [29/Oct/2020:10:51:49 +0900] "POST /springmybatis/invoice_insert HTTP/1.1" 500 19004
127.0.0.1 - - [29/Oct/2020:11:22:36 +0900] "GET / HTTP/1.1" 404 807
0:0:0:0:0:0:0:1 - - [29/Oct/2020:11:22:46 +0900] "POST /springmybatis/invoice_insert HTTP/1.1" 500 4248
0:0:0:0:0:0:0:1 - - [29/Oct/2020:11:23:19 +0900] "POST /springmybatis/invoice_insert HTTP/1.1" 500 16143
0:0:0:0:0:0:0:1 - - [29/Oct/2020:11:31:48 +0900] "POST /springmybatis/invoice_insert HTTP/1.1" 500 16588
0:0:0:0:0:0:0:1 - - [29/Oct/2020:11:31:48 +0900] "POST /springmybatis/invoice_insert HTTP/1.1" 500 16588
0:0:0:0:0:0:0:1 - - [29/Oct/2020:11:31:59 +0900] "GET /springmybatis/invoice_insertform HTTP/1.1" 200 34758
0:0:0:0:0:0:0:1 - - [29/Oct/2020:11:32:04 +0900] "GET /springmybatis/product_modal?product_name=R&parentsLowNo=1 HTTP/1.1" 200 6827
0:0:0:0:0:0:0:1 - - [29/Oct/2020:11:32:05 +0900] "GET /springmybatis/product_modal?product_name=R&parentsLowNo=1 HTTP/1.1" 200 6827
0:0:0:0:0:0:0:1 - - [29/Oct/2020:11:32:13 +0900] "POST /springmybatis/invoice_insert HTTP/1.1" 302 -
0:0:0:0:0:0:0:1 - - [29/Oct/2020:11:32:13 +0900] "GET /springmybatis/invoice_list HTTP/1.1" 200 6866
0:0:0:0:0:0:0:1 - - [29/Oct/2020:11:38:47 +0900] "GET /springmybatis/product_modal?product_name=R&parentsLowNo=1 HTTP/1.1" 200 6827
0:0:0:0:0:0:0:1 - - [29/Oct/2020:11:38:48 +0900] "GET /springmybatis/product_modal?product_name=R&parentsLowNo=1 HTTP/1.1" 200 6827
0:0:0:0:0:0:0:1 - - [29/Oct/2020:11:38:54 +0900] "POST /springmybatis/invoice_insert HTTP/1.1" 500 9465
0:0:0:0:0:0:0:1 - - [29/Oct/2020:11:41:15 +0900] "POST /springmybatis/invoice_insert HTTP/1.1" 302 -
0:0:0:0:0:0:0:1 - - [29/Oct/2020:11:41:15 +0900] "GET /springmybatis/invoice_list HTTP/1.1" 200 7138
0:0:0:0:0:0:0:1 - - [29/Oct/2020:11:46:25 +0900] "POST /springmybatis/invoice_insert HTTP/1.1" 302 -
0:0:0:0:0:0:0:1 - - [29/Oct/2020:11:46:25 +0900] "GET /springmybatis/invoice_list HTTP/1.1" 200 7410
0:0:0:0:0:0:0:1 - - [29/Oct/2020:11:51:00 +0900] "GET /springmybatis/invoice_insertform HTTP/1.1" 200 34699
0:0:0:0:0:0:0:1 - - [29/Oct/2020:11:51:22 +0900] "GET /springmybatis/product_modal?product_name=R&parentsLowNo=1 HTTP/1.1" 200 6827
0:0:0:0:0:0:0:1 - - [29/Oct/2020:11:51:22 +0900] "GET /springmybatis/product_modal?product_name=R&parentsLowNo=1 HTTP/1.1" 200 6827
0:0:0:0:0:0:0:1 - - [29/Oct/2020:11:51:27 +0900] "GET /springmybatis/product_modal?product_name=R&parentsLowNo=1 HTTP/1.1" 200 6827
0:0:0:0:0:0:0:1 - - [29/Oct/2020:11:51:28 +0900] "GET /springmybatis/product_modal?product_name=R&parentsLowNo=1 HTTP/1.1" 200 6827
0:0:0:0:0:0:0:1 - - [29/Oct/2020:11:51:34 +0900] "GET /springmybatis/product_modal?product_name=R&parentsLowNo=1 HTTP/1.1" 200 6827
0:0:0:0:0:0:0:1 - - [29/Oct/2020:11:51:35 +0900] "GET /springmybatis/product_modal?product_name=R&parentsLowNo=1 HTTP/1.1" 200 6827
0:0:0:0:0:0:0:1 - - [29/Oct/2020:11:51:44 +0900] "POST /springmybatis/invoice_insert HTTP/1.1" 302 -
0:0:0:0:0:0:0:1 - - [29/Oct/2020:11:51:44 +0900] "GET /springmybatis/invoice_list HTTP/1.1" 200 7685
0:0:0:0:0:0:0:1 - - [29/Oct/2020:11:57:38 +0900] "POST /springmybatis/invoice_insert HTTP/1.1" 302 -
0:0:0:0:0:0:0:1 - - [29/Oct/2020:11:57:39 +0900] "GET /springmybatis/invoice_list HTTP/1.1" 200 7960
0:0:0:0:0:0:0:1 - - [29/Oct/2020:11:57:40 +0900] "GET /springmybatis/invoice_insertform HTTP/1.1" 200 34716
0:0:0:0:0:0:0:1 - - [29/Oct/2020:11:57:48 +0900] "GET /springmybatis/product_modal?product_name=R&parentsLowNo=1 HTTP/1.1" 200 6827
0:0:0:0:0:0:0:1 - - [29/Oct/2020:11:57:49 +0900] "GET /springmybatis/product_modal?product_name=R&parentsLowNo=1 HTTP/1.1" 200 6827
0:0:0:0:0:0:0:1 - - [29/Oct/2020:11:57:53 +0900] "GET /springmybatis/product_modal?product_name=R&parentsLowNo=1 HTTP/1.1" 200 6827
0:0:0:0:0:0:0:1 - - [29/Oct/2020:11:57:53 +0900] "GET /springmybatis/product_modal?product_name=R&parentsLowNo=1 HTTP/1.1" 200 6827
0:0:0:0:0:0:0:1 - - [29/Oct/2020:11:57:56 +0900] "GET /springmybatis/product_modal?product_name=R&parentsLowNo=1 HTTP/1.1" 200 6827
0:0:0:0:0:0:0:1 - - [29/Oct/2020:11:57:57 +0900] "GET /springmybatis/product_modal?product_name=R&parentsLowNo=1 HTTP/1.1" 200 6827
0:0:0:0:0:0:0:1 - - [29/Oct/2020:11:58:10 +0900] "POST /springmybatis/invoice_insert HTTP/1.1" 302 -
0:0:0:0:0:0:0:1 - - [29/Oct/2020:11:58:10 +0900] "GET /springmybatis/invoice_list HTTP/1.1" 200 8255
0:0:0:0:0:0:0:1 - - [29/Oct/2020:12:05:35 +0900] "GET /springmybatis/invoice_insertform HTTP/1.1" 200 34716
0:0:0:0:0:0:0:1 - - [29/Oct/2020:12:05:37 +0900] "GET /springmybatis/home HTTP/1.1" 200 3274
0:0:0:0:0:0:0:1 - - [29/Oct/2020:12:05:37 +0900] "GET /springmybatis/fonts/glyphicons-halflings-regular.woff2 HTTP/1.1" 404 721
0:0:0:0:0:0:0:1 - - [29/Oct/2020:12:05:37 +0900] "GET /springmybatis/fonts/glyphicons-halflings-regular.woff HTTP/1.1" 404 721
0:0:0:0:0:0:0:1 - - [29/Oct/2020:12:05:37 +0900] "GET /springmybatis/fonts/glyphicons-halflings-regular.ttf HTTP/1.1" 404 721
0:0:0:0:0:0:0:1 - - [29/Oct/2020:12:05:39 +0900] "GET /springmybatis/category_insertform HTTP/1.1" 200 3083
0:0:0:0:0:0:0:1 - - [29/Oct/2020:12:05:41 +0900] "GET /springmybatis/invoice_list HTTP/1.1" 200 8255
0:0:0:0:0:0:0:1 - - [29/Oct/2020:12:06:10 +0900] "GET /springmybatis/invoice_insertform HTTP/1.1" 200 34716
0:0:0:0:0:0:0:1 - - [29/Oct/2020:12:06:12 +0900] "GET /springmybatis/category_insertform HTTP/1.1" 200 3083
0:0:0:0:0:0:0:1 - - [29/Oct/2020:12:06:14 +0900] "GET /springmybatis/category_list HTTP/1.1" 200 4619
0:0:0:0:0:0:0:1 - - [29/Oct/2020:12:06:16 +0900] "GET /springmybatis/product_insertform HTTP/1.1" 200 4183
0:0:0:0:0:0:0:1 - - [29/Oct/2020:12:06:17 +0900] "GET /springmybatis/product_list HTTP/1.1" 200 7695
0:0:0:0:0:0:0:1 - - [29/Oct/2020:12:10:42 +0900] "GET /springmybatis/invoice_insertform HTTP/1.1" 200 34716
0:0:0:0:0:0:0:1 - - [29/Oct/2020:12:10:44 +0900] "GET /springmybatis/invoice_list HTTP/1.1" 200 8255
0:0:0:0:0:0:0:1 - - [29/Oct/2020:12:11:40 +0900] "GET /springmybatis/invoice_insertform HTTP/1.1" 200 34716
0:0:0:0:0:0:0:1 - - [29/Oct/2020:12:11:42 +0900] "GET /springmybatis/product_modal?product_name=R&parentsLowNo=1 HTTP/1.1" 200 6829
0:0:0:0:0:0:0:1 - - [29/Oct/2020:12:21:26 +0900] "GET /springmybatis/invoice_insertform HTTP/1.1" 200 34716
0:0:0:0:0:0:0:1 - - [29/Oct/2020:12:21:28 +0900] "GET /springmybatis/product_modal?product_name=R&parentsLowNo=1 HTTP/1.1" 200 7296
0:0:0:0:0:0:0:1 - - [29/Oct/2020:12:28:57 +0900] "GET /springmybatis/invoice_insertform HTTP/1.1" 200 34716
0:0:0:0:0:0:0:1 - - [29/Oct/2020:12:29:01 +0900] "GET /springmybatis/invoice_insertform HTTP/1.1" 200 34716
0:0:0:0:0:0:0:1 - - [29/Oct/2020:12:29:02 +0900] "GET /springmybatis/product_modal?product_name=R&parentsLowNo=1 HTTP/1.1" 200 7486
0:0:0:0:0:0:0:1 - - [29/Oct/2020:12:33:57 +0900] "GET /springmybatis/invoice_insertform HTTP/1.1" 200 34716
0:0:0:0:0:0:0:1 - - [29/Oct/2020:12:33:59 +0900] "GET /springmybatis/product_modal?product_name=R&parentsLowNo=1 HTTP/1.1" 200 7418
127.0.0.1 - - [29/Oct/2020:12:42:53 +0900] "GET / HTTP/1.1" 404 807
0:0:0:0:0:0:0:1 - - [29/Oct/2020:12:42:54 +0900] "GET /springmybatis/invoice_insertform HTTP/1.1" 200 34716
0:0:0:0:0:0:0:1 - - [29/Oct/2020:12:42:57 +0900] "GET /springmybatis/invoice_insertform HTTP/1.1" 200 34716
0:0:0:0:0:0:0:1 - - [29/Oct/2020:12:42:58 +0900] "GET /springmybatis/product_modal?product_name=R&parentsLowNo=1 HTTP/1.1" 200 7418
0:0:0:0:0:0:0:1 - - [29/Oct/2020:12:45:57 +0900] "GET /springmybatis/invoice_insertform HTTP/1.1" 200 34716
0:0:0:0:0:0:0:1 - - [29/Oct/2020:12:46:00 +0900] "GET /springmybatis/product_modal?product_name=R&parentsLowNo=1 HTTP/1.1" 200 7331
0:0:0:0:0:0:0:1 - - [29/Oct/2020:12:46:20 +0900] "GET /springmybatis/invoice_insertform HTTP/1.1" 200 34716
0:0:0:0:0:0:0:1 - - [29/Oct/2020:12:46:22 +0900] "GET /springmybatis/product_modal?product_name=R&parentsLowNo=1 HTTP/1.1" 200 7253
0:0:0:0:0:0:0:1 - - [29/Oct/2020:14:10:44 +0900] "GET /springmybatis/invoice_insertform HTTP/1.1" 200 34716
0:0:0:0:0:0:0:1 - - [29/Oct/2020:14:10:46 +0900] "GET /springmybatis/product_modal?product_name=R&parentsLowNo=1 HTTP/1.1" 200 8536
0:0:0:0:0:0:0:1 - - [29/Oct/2020:14:11:12 +0900] "GET /springmybatis/invoice_insertform HTTP/1.1" 200 34716
0:0:0:0:0:0:0:1 - - [29/Oct/2020:14:11:14 +0900] "GET /springmybatis/product_modal?product_name=R&parentsLowNo=1 HTTP/1.1" 200 8471
0:0:0:0:0:0:0:1 - - [29/Oct/2020:14:12:04 +0900] "GET /springmybatis/invoice_insertform HTTP/1.1" 200 34716
0:0:0:0:0:0:0:1 - - [29/Oct/2020:14:12:05 +0900] "GET /springmybatis/product_modal?product_name=R&parentsLowNo=1 HTTP/1.1" 200 8585
0:0:0:0:0:0:0:1 - - [29/Oct/2020:14:13:06 +0900] "GET /springmybatis/invoice_insertform HTTP/1.1" 200 34716
0:0:0:0:0:0:0:1 - - [29/Oct/2020:14:13:08 +0900] "GET /springmybatis/product_modal?product_name=R&parentsLowNo=1 HTTP/1.1" 200 8623
0:0:0:0:0:0:0:1 - - [29/Oct/2020:14:14:36 +0900] "GET /springmybatis/product_modal?product_name=R&parentsLowNo=1 HTTP/1.1" 200 8623
0:0:0:0:0:0:0:1 - - [29/Oct/2020:14:27:28 +0900] "GET /springmybatis/invoice_insertform HTTP/1.1" 200 34716
0:0:0:0:0:0:0:1 - - [29/Oct/2020:14:27:30 +0900] "GET /springmybatis/product_modal?product_name=R&parentsLowNo=1 HTTP/1.1" 200 8303
0:0:0:0:0:0:0:1 - - [29/Oct/2020:14:30:14 +0900] "GET /springmybatis/invoice_insertform HTTP/1.1" 200 34716
0:0:0:0:0:0:0:1 - - [29/Oct/2020:14:30:16 +0900] "GET /springmybatis/product_modal?product_name=R&parentsLowNo=1 HTTP/1.1" 200 8126
0:0:0:0:0:0:0:1 - - [29/Oct/2020:14:34:02 +0900] "GET /springmybatis/invoice_insertform HTTP/1.1" 200 34716
0:0:0:0:0:0:0:1 - - [29/Oct/2020:14:34:06 +0900] "GET /springmybatis/product_modal?product_name=R&parentsLowNo=1 HTTP/1.1" 200 9512
0:0:0:0:0:0:0:1 - - [29/Oct/2020:14:34:47 +0900] "GET /springmybatis/invoice_insertform HTTP/1.1" 200 34716
0:0:0:0:0:0:0:1 - - [29/Oct/2020:14:34:49 +0900] "GET /springmybatis/product_modal?product_name=R&parentsLowNo=1 HTTP/1.1" 200 9523
0:0:0:0:0:0:0:1 - - [29/Oct/2020:14:36:34 +0900] "GET /springmybatis/invoice_insertform HTTP/1.1" 200 34716
0:0:0:0:0:0:0:1 - - [29/Oct/2020:14:36:36 +0900] "GET /springmybatis/product_modal?product_name=R&parentsLowNo=1 HTTP/1.1" 200 9533
0:0:0:0:0:0:0:1 - - [29/Oct/2020:14:37:11 +0900] "GET /springmybatis/invoice_insertform HTTP/1.1" 200 34716
0:0:0:0:0:0:0:1 - - [29/Oct/2020:14:37:13 +0900] "GET /springmybatis/product_modal?product_name=R&parentsLowNo=1 HTTP/1.1" 200 9536
0:0:0:0:0:0:0:1 - - [29/Oct/2020:14:38:11 +0900] "GET /springmybatis/invoice_insertform HTTP/1.1" 200 34716
0:0:0:0:0:0:0:1 - - [29/Oct/2020:14:38:13 +0900] "GET /springmybatis/product_modal?product_name=R&parentsLowNo=1 HTTP/1.1" 200 9517
0:0:0:0:0:0:0:1 - - [29/Oct/2020:14:47:07 +0900] "GET /springmybatis/invoice_insertform HTTP/1.1" 200 34716
0:0:0:0:0:0:0:1 - - [29/Oct/2020:14:47:08 +0900] "GET /springmybatis/product_modal?product_name=R&parentsLowNo=1 HTTP/1.1" 200 9526
0:0:0:0:0:0:0:1 - - [29/Oct/2020:14:47:45 +0900] "GET /springmybatis/product_modal?product_name=R&parentsLowNo=1 HTTP/1.1" 200 9526
0:0:0:0:0:0:0:1 - - [29/Oct/2020:14:52:00 +0900] "GET /springmybatis/invoice_insertform HTTP/1.1" 200 34716
0:0:0:0:0:0:0:1 - - [29/Oct/2020:14:52:01 +0900] "GET /springmybatis/product_modal?product_name=R&parentsLowNo=1 HTTP/1.1" 200 9548
0:0:0:0:0:0:0:1 - - [29/Oct/2020:14:53:59 +0900] "GET /springmybatis/product_modal?product_name=R&parentsLowNo=1 HTTP/1.1" 200 9548
0:0:0:0:0:0:0:1 - - [29/Oct/2020:15:07:25 +0900] "GET /springmybatis/invoice_insertform HTTP/1.1" 200 34716
0:0:0:0:0:0:0:1 - - [29/Oct/2020:15:07:26 +0900] "GET /springmybatis/product_modal?product_name=R&parentsLowNo=1 HTTP/1.1" 200 9892
0:0:0:0:0:0:0:1 - - [29/Oct/2020:15:08:16 +0900] "GET /springmybatis/invoice_insertform HTTP/1.1" 200 34716
0:0:0:0:0:0:0:1 - - [29/Oct/2020:15:08:18 +0900] "GET /springmybatis/product_modal?product_name=R&parentsLowNo=1 HTTP/1.1" 200 9893
0:0:0:0:0:0:0:1 - - [29/Oct/2020:15:08:51 +0900] "GET /springmybatis/invoice_insertform HTTP/1.1" 200 34716
0:0:0:0:0:0:0:1 - - [29/Oct/2020:15:08:53 +0900] "GET /springmybatis/product_modal?product_name=R&parentsLowNo=1 HTTP/1.1" 200 9893
0:0:0:0:0:0:0:1 - - [29/Oct/2020:15:13:41 +0900] "GET /springmybatis/invoice_insertform HTTP/1.1" 200 34716
0:0:0:0:0:0:0:1 - - [29/Oct/2020:15:13:43 +0900] "GET /springmybatis/product_modal?product_name=R&parentsLowNo=1 HTTP/1.1" 200 9974
0:0:0:0:0:0:0:1 - - [29/Oct/2020:15:14:35 +0900] "GET /springmybatis/invoice_insertform HTTP/1.1" 200 34716
0:0:0:0:0:0:0:1 - - [29/Oct/2020:15:14:37 +0900] "GET /springmybatis/product_modal?product_name=R&parentsLowNo=1 HTTP/1.1" 200 9969
0:0:0:0:0:0:0:1 - - [29/Oct/2020:15:16:51 +0900] "GET /springmybatis/invoice_insertform HTTP/1.1" 200 34716
0:0:0:0:0:0:0:1 - - [29/Oct/2020:15:16:53 +0900] "GET /springmybatis/product_modal?product_name=R&parentsLowNo=1 HTTP/1.1" 200 10289
0:0:0:0:0:0:0:1 - - [29/Oct/2020:15:21:59 +0900] "GET /springmybatis/invoice_insertform HTTP/1.1" 200 34714
0:0:0:0:0:0:0:1 - - [29/Oct/2020:15:22:00 +0900] "GET /springmybatis/product_modal?product_name=R&parentsLowNo=1 HTTP/1.1" 200 10289
0:0:0:0:0:0:0:1 - - [29/Oct/2020:15:43:03 +0900] "GET /springmybatis/invoice_insertform HTTP/1.1" 200 34714
0:0:0:0:0:0:0:1 - - [29/Oct/2020:15:43:05 +0900] "GET /springmybatis/product_modal?product_name=R&parentsLowNo=1 HTTP/1.1" 200 10304
0:0:0:0:0:0:0:1 - - [29/Oct/2020:15:43:16 +0900] "GET /springmybatis/product_modal?product_name=R&parentsLowNo=1 HTTP/1.1" 200 10304
0:0:0:0:0:0:0:1 - - [29/Oct/2020:15:43:19 +0900] "GET /springmybatis/product_modal?product_name=R&parentsLowNo=1 HTTP/1.1" 200 10304
0:0:0:0:0:0:0:1 - - [29/Oct/2020:15:43:37 +0900] "GET /springmybatis/product_modal?product_name=R&parentsLowNo=1 HTTP/1.1" 200 10304
0:0:0:0:0:0:0:1 - - [29/Oct/2020:15:43:39 +0900] "GET /springmybatis/product_modal?product_name=R&parentsLowNo=1 HTTP/1.1" 200 10304
0:0:0:0:0:0:0:1 - - [29/Oct/2020:15:43:44 +0900] "GET /springmybatis/product_modal?product_name=R&parentsLowNo=1 HTTP/1.1" 200 10304
0:0:0:0:0:0:0:1 - - [29/Oct/2020:15:43:47 +0900] "GET /springmybatis/product_modal?product_name=R&parentsLowNo=1 HTTP/1.1" 200 10304
0:0:0:0:0:0:0:1 - - [29/Oct/2020:15:43:50 +0900] "GET /springmybatis/product_modal?product_name=R&parentsLowNo=1 HTTP/1.1" 200 10304
0:0:0:0:0:0:0:1 - - [29/Oct/2020:15:44:00 +0900] "GET /springmybatis/product_modal?product_name=R&parentsLowNo=1 HTTP/1.1" 200 10304
0:0:0:0:0:0:0:1 - - [29/Oct/2020:15:44:04 +0900] "GET /springmybatis/product_modal?product_name=R&parentsLowNo=1 HTTP/1.1" 200 10304
0:0:0:0:0:0:0:1 - - [29/Oct/2020:16:08:02 +0900] "GET /springmybatis/product_modal?product_name=R&parentsLowNo=1 HTTP/1.1" 200 10304
0:0:0:0:0:0:0:1 - - [29/Oct/2020:16:12:07 +0900] "GET /springmybatis/product_modal?product_name=R&parentsLowNo=1 HTTP/1.1" 200 10304
0:0:0:0:0:0:0:1 - - [29/Oct/2020:16:12:08 +0900] "GET /springmybatis/product_modal?product_name=R&parentsLowNo=1 HTTP/1.1" 200 10304
0:0:0:0:0:0:0:1 - - [29/Oct/2020:16:12:14 +0900] "GET /springmybatis/product_modal?product_name=R&parentsLowNo=1 HTTP/1.1" 200 10304
0:0:0:0:0:0:0:1 - - [29/Oct/2020:16:12:16 +0900] "GET /springmybatis/product_modal?product_name=R&parentsLowNo=1 HTTP/1.1" 200 10304
0:0:0:0:0:0:0:1 - - [29/Oct/2020:16:13:27 +0900] "GET /springmybatis/invoice_insertform HTTP/1.1" 200 34710
0:0:0:0:0:0:0:1 - - [29/Oct/2020:16:13:29 +0900] "GET /springmybatis/product_modal?product_name=R&parentsLowNo=1 HTTP/1.1" 200 10304
0:0:0:0:0:0:0:1 - - [29/Oct/2020:16:13:37 +0900] "GET /springmybatis/invoice_insertform HTTP/1.1" 200 34710
0:0:0:0:0:0:0:1 - - [29/Oct/2020:16:13:38 +0900] "GET /springmybatis/product_modal?product_name=R&parentsLowNo=1 HTTP/1.1" 200 10304
0:0:0:0:0:0:0:1 - - [29/Oct/2020:16:14:06 +0900] "GET /springmybatis/invoice_insertform HTTP/1.1" 200 34793
0:0:0:0:0:0:0:1 - - [29/Oct/2020:16:14:08 +0900] "GET /springmybatis/product_modal?product_name=R&parentsLowNo=1 HTTP/1.1" 200 10304
0:0:0:0:0:0:0:1 - - [29/Oct/2020:16:14:10 +0900] "GET /springmybatis/product_modal?product_name=R&parentsLowNo=1 HTTP/1.1" 200 10304
0:0:0:0:0:0:0:1 - - [29/Oct/2020:16:14:12 +0900] "GET /springmybatis/product_modal?product_name=R&parentsLowNo=1 HTTP/1.1" 200 10304
0:0:0:0:0:0:0:1 - - [29/Oct/2020:16:14:18 +0900] "GET /springmybatis/invoice_insertform HTTP/1.1" 200 34793
0:0:0:0:0:0:0:1 - - [29/Oct/2020:16:14:20 +0900] "GET /springmybatis/product_modal?product_name=R&parentsLowNo=1 HTTP/1.1" 200 10304
0:0:0:0:0:0:0:1 - - [29/Oct/2020:16:14:37 +0900] "GET /springmybatis/invoice_insertform HTTP/1.1" 200 34795
0:0:0:0:0:0:0:1 - - [29/Oct/2020:16:14:38 +0900] "GET /springmybatis/product_modal?product_name=R&parentsLowNo=1 HTTP/1.1" 200 10304
0:0:0:0:0:0:0:1 - - [29/Oct/2020:16:14:45 +0900] "GET /springmybatis/product_modal?product_name=R&parentsLowNo=1 HTTP/1.1" 200 10304
0:0:0:0:0:0:0:1 - - [29/Oct/2020:16:14:49 +0900] "GET /springmybatis/product_modal?product_name=R&parentsLowNo=1 HTTP/1.1" 200 10304
0:0:0:0:0:0:0:1 - - [29/Oct/2020:16:16:49 +0900] "GET /springmybatis/invoice_insertform HTTP/1.1" 200 34795
0:0:0:0:0:0:0:1 - - [29/Oct/2020:16:16:51 +0900] "GET /springmybatis/product_modal?product_name=R&parentsLowNo=1 HTTP/1.1" 200 10304
0:0:0:0:0:0:0:1 - - [29/Oct/2020:16:16:54 +0900] "GET /springmybatis/product_modal?product_name=R&parentsLowNo=1 HTTP/1.1" 200 10304
0:0:0:0:0:0:0:1 - - [29/Oct/2020:16:17:00 +0900] "GET /springmybatis/product_modal?product_name=R&parentsLowNo=1 HTTP/1.1" 200 10304
0:0:0:0:0:0:0:1 - - [29/Oct/2020:16:17:02 +0900] "GET /springmybatis/product_modal?product_name=R&parentsLowNo=1 HTTP/1.1" 200 10304
0:0:0:0:0:0:0:1 - - [29/Oct/2020:16:17:05 +0900] "GET /springmybatis/product_modal?product_name=R&parentsLowNo=1 HTTP/1.1" 200 10304
0:0:0:0:0:0:0:1 - - [29/Oct/2020:16:17:08 +0900] "GET /springmybatis/product_modal?product_name=R&parentsLowNo=1 HTTP/1.1" 200 10304
0:0:0:0:0:0:0:1 - - [29/Oct/2020:16:17:19 +0900] "GET /springmybatis/product_modal?product_name=R&parentsLowNo=1 HTTP/1.1" 200 10304
0:0:0:0:0:0:0:1 - - [29/Oct/2020:16:17:33 +0900] "GET /springmybatis/product_modal?product_name=R&parentsLowNo=1 HTTP/1.1" 200 10304
0:0:0:0:0:0:0:1 - - [29/Oct/2020:16:17:44 +0900] "GET /springmybatis/product_modal?product_name=R&parentsLowNo=1 HTTP/1.1" 200 10304
0:0:0:0:0:0:0:1 - - [29/Oct/2020:16:18:06 +0900] "GET /springmybatis/product_modal?product_name=R&parentsLowNo=1 HTTP/1.1" 200 10304
0:0:0:0:0:0:0:1 - - [29/Oct/2020:16:18:53 +0900] "GET /springmybatis/product_modal?product_name=R&parentsLowNo=1 HTTP/1.1" 200 10304
0:0:0:0:0:0:0:1 - - [29/Oct/2020:16:18:56 +0900] "GET /springmybatis/invoice_insertform HTTP/1.1" 200 34795
0:0:0:0:0:0:0:1 - - [29/Oct/2020:16:18:58 +0900] "GET /springmybatis/product_modal?product_name=R&parentsLowNo=1 HTTP/1.1" 200 10304
0:0:0:0:0:0:0:1 - - [29/Oct/2020:16:22:15 +0900] "GET /springmybatis/invoice_insertform HTTP/1.1" 200 34795
0:0:0:0:0:0:0:1 - - [29/Oct/2020:16:22:17 +0900] "GET /springmybatis/product_modal?product_name=R&parentsLowNo=1 HTTP/1.1" 200 10343
0:0:0:0:0:0:0:1 - - [29/Oct/2020:16:22:23 +0900] "GET /springmybatis/product_modal?product_name=R&parentsLowNo=1 HTTP/1.1" 200 10343
0:0:0:0:0:0:0:1 - - [29/Oct/2020:16:27:09 +0900] "GET /springmybatis/invoice_insertform HTTP/1.1" 200 34797
0:0:0:0:0:0:0:1 - - [29/Oct/2020:16:27:12 +0900] "GET /springmybatis/product_modal?product_name=R&parentsLowNo=1 HTTP/1.1" 200 10343
0:0:0:0:0:0:0:1 - - [29/Oct/2020:16:27:14 +0900] "GET /springmybatis/product_modal?product_name=R&parentsLowNo=1 HTTP/1.1" 200 10343
0:0:0:0:0:0:0:1 - - [29/Oct/2020:16:27:15 +0900] "GET /springmybatis/product_modal?product_name=R&parentsLowNo=1 HTTP/1.1" 200 10343
0:0:0:0:0:0:0:1 - - [29/Oct/2020:16:28:11 +0900] "GET /springmybatis/invoice_insertform HTTP/1.1" 200 34797
0:0:0:0:0:0:0:1 - - [29/Oct/2020:16:28:15 +0900] "GET /springmybatis/product_modal?product_name=R&parentsLowNo=1 HTTP/1.1" 200 10378
0:0:0:0:0:0:0:1 - - [29/Oct/2020:16:28:17 +0900] "GET /springmybatis/product_modal?product_name=R&parentsLowNo=1 HTTP/1.1" 200 10378
0:0:0:0:0:0:0:1 - - [29/Oct/2020:16:28:18 +0900] "GET /springmybatis/product_modal?product_name=R&parentsLowNo=1 HTTP/1.1" 200 10378
0:0:0:0:0:0:0:1 - - [29/Oct/2020:16:28:24 +0900] "GET /springmybatis/product_modal?product_name=R&parentsLowNo=1 HTTP/1.1" 200 10378
0:0:0:0:0:0:0:1 - - [29/Oct/2020:16:28:26 +0900] "GET /springmybatis/product_modal?product_name=R&parentsLowNo=1 HTTP/1.1" 200 10378
0:0:0:0:0:0:0:1 - - [29/Oct/2020:16:28:31 +0900] "GET /springmybatis/product_modal?product_name=R&parentsLowNo=1 HTTP/1.1" 200 10378
0:0:0:0:0:0:0:1 - - [29/Oct/2020:16:28:34 +0900] "GET /springmybatis/product_modal?product_name=R&parentsLowNo=1 HTTP/1.1" 200 10378
0:0:0:0:0:0:0:1 - - [29/Oct/2020:16:28:37 +0900] "GET /springmybatis/product_modal?product_name=R&parentsLowNo=1 HTTP/1.1" 200 10378
0:0:0:0:0:0:0:1 - - [29/Oct/2020:16:28:43 +0900] "GET /springmybatis/product_modal?product_name=R&parentsLowNo=1 HTTP/1.1" 200 10378
0:0:0:0:0:0:0:1 - - [29/Oct/2020:16:28:48 +0900] "GET /springmybatis/product_modal?product_name=R&parentsLowNo=1 HTTP/1.1" 200 10378
0:0:0:0:0:0:0:1 - - [29/Oct/2020:16:28:49 +0900] "GET /springmybatis/product_modal?product_name=R&parentsLowNo=1 HTTP/1.1" 200 10378
0:0:0:0:0:0:0:1 - - [29/Oct/2020:16:29:24 +0900] "GET /springmybatis/invoice_insertform HTTP/1.1" 200 34799
0:0:0:0:0:0:0:1 - - [29/Oct/2020:16:29:26 +0900] "GET /springmybatis/product_modal?product_name=R&parentsLowNo=1 HTTP/1.1" 200 10378
0:0:0:0:0:0:0:1 - - [29/Oct/2020:16:29:29 +0900] "GET /springmybatis/product_modal?product_name=R&parentsLowNo=1 HTTP/1.1" 200 10378
0:0:0:0:0:0:0:1 - - [29/Oct/2020:16:29:37 +0900] "GET /springmybatis/invoice_insertform HTTP/1.1" 200 34799
0:0:0:0:0:0:0:1 - - [29/Oct/2020:16:29:39 +0900] "GET /springmybatis/product_modal?product_name=R&parentsLowNo=1 HTTP/1.1" 200 10378
0:0:0:0:0:0:0:1 - - [29/Oct/2020:16:29:42 +0900] "GET /springmybatis/product_modal?product_name=R&parentsLowNo=1 HTTP/1.1" 200 10378
0:0:0:0:0:0:0:1 - - [29/Oct/2020:16:29:50 +0900] "GET /springmybatis/product_modal?product_name=R&parentsLowNo=1 HTTP/1.1" 200 10378
0:0:0:0:0:0:0:1 - - [29/Oct/2020:16:29:54 +0900] "GET /springmybatis/product_modal?product_name=R&parentsLowNo=1 HTTP/1.1" 200 10378
0:0:0:0:0:0:0:1 - - [29/Oct/2020:16:29:58 +0900] "GET /springmybatis/invoice_insertform HTTP/1.1" 200 34799
0:0:0:0:0:0:0:1 - - [29/Oct/2020:16:30:00 +0900] "GET /springmybatis/product_modal?product_name=R&parentsLowNo=1 HTTP/1.1" 200 10378
0:0:0:0:0:0:0:1 - - [29/Oct/2020:16:30:11 +0900] "GET /springmybatis/product_modal?product_name=R&parentsLowNo=1 HTTP/1.1" 200 10378
0:0:0:0:0:0:0:1 - - [29/Oct/2020:16:30:13 +0900] "GET /springmybatis/product_modal?product_name=R&parentsLowNo=1 HTTP/1.1" 200 10378
0:0:0:0:0:0:0:1 - - [29/Oct/2020:16:30:22 +0900] "GET /springmybatis/product_modal?product_name=R&parentsLowNo=1 HTTP/1.1" 200 10378
0:0:0:0:0:0:0:1 - - [29/Oct/2020:16:30:24 +0900] "GET /springmybatis/product_modal?product_name=R&parentsLowNo=1 HTTP/1.1" 200 10378
0:0:0:0:0:0:0:1 - - [29/Oct/2020:16:30:29 +0900] "GET /springmybatis/product_modal?product_name=R&parentsLowNo=1 HTTP/1.1" 200 10378
0:0:0:0:0:0:0:1 - - [29/Oct/2020:16:30:30 +0900] "GET /springmybatis/product_modal?product_name=R&parentsLowNo=1 HTTP/1.1" 200 10378
0:0:0:0:0:0:0:1 - - [29/Oct/2020:16:30:36 +0900] "GET /springmybatis/invoice_insertform HTTP/1.1" 200 34799
0:0:0:0:0:0:0:1 - - [29/Oct/2020:16:30:38 +0900] "GET /springmybatis/product_modal?product_name=R&parentsLowNo=1 HTTP/1.1" 200 10378
0:0:0:0:0:0:0:1 - - [29/Oct/2020:16:30:43 +0900] "GET /springmybatis/product_modal?product_name=R&parentsLowNo=1 HTTP/1.1" 200 10378
0:0:0:0:0:0:0:1 - - [29/Oct/2020:16:30:43 +0900] "GET /springmybatis/product_modal?product_name=R&parentsLowNo=1 HTTP/1.1" 200 10378
0:0:0:0:0:0:0:1 - - [29/Oct/2020:16:30:45 +0900] "GET /springmybatis/product_modal?product_name=R&parentsLowNo=1 HTTP/1.1" 200 10378
0:0:0:0:0:0:0:1 - - [29/Oct/2020:16:30:45 +0900] "GET /springmybatis/product_modal?product_name=R&parentsLowNo=1 HTTP/1.1" 200 10378
0:0:0:0:0:0:0:1 - - [29/Oct/2020:16:30:46 +0900] "GET /springmybatis/product_modal?product_name=R&parentsLowNo=1 HTTP/1.1" 200 10378
0:0:0:0:0:0:0:1 - - [29/Oct/2020:16:30:47 +0900] "GET /springmybatis/product_modal?product_name=R&parentsLowNo=1 HTTP/1.1" 200 10378
0:0:0:0:0:0:0:1 - - [29/Oct/2020:16:31:16 +0900] "GET /springmybatis/invoice_insertform HTTP/1.1" 200 34799
0:0:0:0:0:0:0:1 - - [29/Oct/2020:16:31:19 +0900] "GET /springmybatis/product_modal?product_name=R&parentsLowNo=1 HTTP/1.1" 200 10378
0:0:0:0:0:0:0:1 - - [29/Oct/2020:16:31:33 +0900] "GET /springmybatis/product_modal?product_name=R&parentsLowNo=1 HTTP/1.1" 200 10378
0:0:0:0:0:0:0:1 - - [29/Oct/2020:16:36:49 +0900] "GET /springmybatis/invoice_insertform HTTP/1.1" 200 34799
0:0:0:0:0:0:0:1 - - [29/Oct/2020:16:36:50 +0900] "GET /springmybatis/product_modal?product_name=R&parentsLowNo=1 HTTP/1.1" 200 10380
0:0:0:0:0:0:0:1 - - [29/Oct/2020:16:36:57 +0900] "GET /springmybatis/product_modal?product_name=R&parentsLowNo=1 HTTP/1.1" 200 10380
0:0:0:0:0:0:0:1 - - [29/Oct/2020:16:37:00 +0900] "GET /springmybatis/product_modal?product_name=R&parentsLowNo=1 HTTP/1.1" 200 10380
0:0:0:0:0:0:0:1 - - [29/Oct/2020:16:37:19 +0900] "GET /springmybatis/invoice_insertform HTTP/1.1" 200 34799
0:0:0:0:0:0:0:1 - - [29/Oct/2020:16:37:20 +0900] "GET /springmybatis/product_modal?product_name=R&parentsLowNo=1 HTTP/1.1" 200 10380
0:0:0:0:0:0:0:1 - - [29/Oct/2020:16:37:23 +0900] "GET /springmybatis/product_modal?product_name=R&parentsLowNo=1 HTTP/1.1" 200 10380
0:0:0:0:0:0:0:1 - - [29/Oct/2020:16:37:34 +0900] "GET /springmybatis/invoice_insertform HTTP/1.1" 200 34799
0:0:0:0:0:0:0:1 - - [29/Oct/2020:16:37:36 +0900] "GET /springmybatis/product_modal?product_name=R&parentsLowNo=1 HTTP/1.1" 200 10434
0:0:0:0:0:0:0:1 - - [29/Oct/2020:16:37:40 +0900] "GET /springmybatis/product_modal?product_name=R&parentsLowNo=1 HTTP/1.1" 200 10434
0:0:0:0:0:0:0:1 - - [29/Oct/2020:16:37:44 +0900] "GET /springmybatis/product_modal?product_name=R&parentsLowNo=1 HTTP/1.1" 200 10434
0:0:0:0:0:0:0:1 - - [29/Oct/2020:16:37:47 +0900] "GET /springmybatis/product_modal?product_name=R&parentsLowNo=1 HTTP/1.1" 200 10434
0:0:0:0:0:0:0:1 - - [29/Oct/2020:16:38:01 +0900] "GET /springmybatis/invoice_insertform HTTP/1.1" 200 34799
0:0:0:0:0:0:0:1 - - [29/Oct/2020:16:38:06 +0900] "GET /springmybatis/product_modal?product_name=R&parentsLowNo=1 HTTP/1.1" 200 10434
0:0:0:0:0:0:0:1 - - [29/Oct/2020:16:38:31 +0900] "GET /springmybatis/invoice_insertform HTTP/1.1" 200 34799
0:0:0:0:0:0:0:1 - - [29/Oct/2020:16:38:34 +0900] "GET /springmybatis/product_modal?product_name=R&parentsLowNo=1 HTTP/1.1" 200 10436
0:0:0:0:0:0:0:1 - - [29/Oct/2020:16:38:38 +0900] "GET /springmybatis/product_modal?product_name=R&parentsLowNo=1 HTTP/1.1" 200 10436
0:0:0:0:0:0:0:1 - - [29/Oct/2020:16:38:40 +0900] "GET /springmybatis/product_modal?product_name=R&parentsLowNo=1 HTTP/1.1" 200 10436
0:0:0:0:0:0:0:1 - - [29/Oct/2020:16:39:20 +0900] "GET /springmybatis/product_modal?product_name=R&parentsLowNo=1 HTTP/1.1" 200 10436
0:0:0:0:0:0:0:1 - - [29/Oct/2020:16:39:21 +0900] "GET /springmybatis/product_modal?product_name=R&parentsLowNo=1 HTTP/1.1" 200 10436
0:0:0:0:0:0:0:1 - - [29/Oct/2020:16:49:10 +0900] "GET /springmybatis/invoice_insertform HTTP/1.1" 200 34799
0:0:0:0:0:0:0:1 - - [29/Oct/2020:16:49:12 +0900] "GET /springmybatis/product_modal?product_name=R&parentsLowNo=1 HTTP/1.1" 200 10479
0:0:0:0:0:0:0:1 - - [29/Oct/2020:16:49:15 +0900] "GET /springmybatis/product_modal?product_name=R&parentsLowNo=1 HTTP/1.1" 200 10479
0:0:0:0:0:0:0:1 - - [29/Oct/2020:16:49:18 +0900] "GET /springmybatis/product_modal?product_name=R&parentsLowNo=1 HTTP/1.1" 200 10479
0:0:0:0:0:0:0:1 - - [29/Oct/2020:16:50:46 +0900] "GET /springmybatis/invoice_insertform HTTP/1.1" 200 34799
0:0:0:0:0:0:0:1 - - [29/Oct/2020:16:50:48 +0900] "GET /springmybatis/product_modal?product_name=R&parentsLowNo=1 HTTP/1.1" 200 10499
0:0:0:0:0:0:0:1 - - [29/Oct/2020:16:50:52 +0900] "GET /springmybatis/product_modal?product_name=R&parentsLowNo=1 HTTP/1.1" 200 10499
0:0:0:0:0:0:0:1 - - [29/Oct/2020:16:50:56 +0900] "GET /springmybatis/product_modal?product_name=R&parentsLowNo=1 HTTP/1.1" 200 10499
0:0:0:0:0:0:0:1 - - [29/Oct/2020:16:50:59 +0900] "GET /springmybatis/product_modal?product_name=R&parentsLowNo=1 HTTP/1.1" 200 10499
0:0:0:0:0:0:0:1 - - [29/Oct/2020:16:51:01 +0900] "GET /springmybatis/product_modal?product_name=R&parentsLowNo=1 HTTP/1.1" 200 10499
0:0:0:0:0:0:0:1 - - [29/Oct/2020:16:52:56 +0900] "GET /springmybatis/product_modal?product_name=R&parentsLowNo=1 HTTP/1.1" 200 10499
0:0:0:0:0:0:0:1 - - [29/Oct/2020:16:53:01 +0900] "GET /springmybatis/product_modal?product_name=R&parentsLowNo=1 HTTP/1.1" 200 10499
0:0:0:0:0:0:0:1 - - [29/Oct/2020:16:53:03 +0900] "GET /springmybatis/product_modal?product_name=R&parentsLowNo=1 HTTP/1.1" 200 10499
0:0:0:0:0:0:0:1 - - [29/Oct/2020:16:53:05 +0900] "GET /springmybatis/product_modal?product_name=R&parentsLowNo=1 HTTP/1.1" 200 10499
0:0:0:0:0:0:0:1 - - [29/Oct/2020:16:53:45 +0900] "GET /springmybatis/invoice_insertform HTTP/1.1" 200 34799
0:0:0:0:0:0:0:1 - - [29/Oct/2020:16:53:47 +0900] "GET /springmybatis/product_modal?product_name=R&parentsLowNo=1 HTTP/1.1" 200 10500
0:0:0:0:0:0:0:1 - - [29/Oct/2020:16:53:52 +0900] "GET /springmybatis/product_modal?product_name=R&parentsLowNo=1 HTTP/1.1" 200 10500
0:0:0:0:0:0:0:1 - - [29/Oct/2020:16:53:57 +0900] "GET /springmybatis/product_modal?product_name=R&parentsLowNo=1 HTTP/1.1" 200 10500
0:0:0:0:0:0:0:1 - - [29/Oct/2020:16:59:23 +0900] "GET /springmybatis/invoice_insertform HTTP/1.1" 200 34799
0:0:0:0:0:0:0:1 - - [29/Oct/2020:17:11:44 +0900] "GET /springmybatis/invoice_insertform HTTP/1.1" 200 34082
0:0:0:0:0:0:0:1 - - [29/Oct/2020:17:11:49 +0900] "GET /springmybatis/product_modal?product_name=&parentsLowNo=0 HTTP/1.1" 200 10500
0:0:0:0:0:0:0:1 - - [29/Oct/2020:17:12:09 +0900] "GET /springmybatis/product_modal?product_name=&parentsLowNo=0 HTTP/1.1" 200 10500
0:0:0:0:0:0:0:1 - - [29/Oct/2020:17:12:21 +0900] "GET /springmybatis/product_modal?product_name=1&parentsLowNo=0 HTTP/1.1" 200 10500
0:0:0:0:0:0:0:1 - - [29/Oct/2020:17:13:53 +0900] "GET /springmybatis/invoice_insertform HTTP/1.1" 200 34212
0:0:0:0:0:0:0:1 - - [29/Oct/2020:17:13:55 +0900] "GET /springmybatis/product_modal?product_name=&parentsLowNo=0 HTTP/1.1" 200 10500
0:0:0:0:0:0:0:1 - - [29/Oct/2020:17:14:10 +0900] "GET /springmybatis/invoice_insertform HTTP/1.1" 200 34212
0:0:0:0:0:0:0:1 - - [29/Oct/2020:17:14:11 +0900] "GET /springmybatis/invoice_insertform HTTP/1.1" 200 34212
0:0:0:0:0:0:0:1 - - [29/Oct/2020:17:14:13 +0900] "GET /springmybatis/product_modal?product_name=&parentsLowNo=0 HTTP/1.1" 200 10183
0:0:0:0:0:0:0:1 - - [29/Oct/2020:17:14:27 +0900] "GET /springmybatis/invoice_insertform HTTP/1.1" 200 34212
0:0:0:0:0:0:0:1 - - [29/Oct/2020:17:14:56 +0900] "GET /springmybatis/invoice_insertform HTTP/1.1" 200 34212
0:0:0:0:0:0:0:1 - - [29/Oct/2020:17:14:57 +0900] "GET /springmybatis/invoice_insertform HTTP/1.1" 200 34212
0:0:0:0:0:0:0:1 - - [29/Oct/2020:17:14:57 +0900] "GET /springmybatis/invoice_insertform HTTP/1.1" 200 34212
0:0:0:0:0:0:0:1 - - [29/Oct/2020:17:14:58 +0900] "GET /springmybatis/invoice_insertform HTTP/1.1" 200 34212
0:0:0:0:0:0:0:1 - - [29/Oct/2020:17:15:00 +0900] "GET /springmybatis/product_modal?product_name=&parentsLowNo=0 HTTP/1.1" 200 10183
0:0:0:0:0:0:0:1 - - [29/Oct/2020:17:15:03 +0900] "GET /springmybatis/product_modal?product_name=&parentsLowNo=1 HTTP/1.1" 200 10183
127.0.0.1 - - [29/Oct/2020:17:15:40 +0900] "GET / HTTP/1.1" 404 807
0:0:0:0:0:0:0:1 - - [29/Oct/2020:17:15:41 +0900] "GET /springmybatis/invoice_insertform HTTP/1.1" 200 34212
0:0:0:0:0:0:0:1 - - [29/Oct/2020:17:15:46 +0900] "GET /springmybatis/invoice_insertform HTTP/1.1" 200 34212
0:0:0:0:0:0:0:1 - - [29/Oct/2020:17:15:48 +0900] "GET /springmybatis/product_modal?product_name=&parentsLowNo=0 HTTP/1.1" 200 10183
0:0:0:0:0:0:0:1 - - [29/Oct/2020:17:15:55 +0900] "GET /springmybatis/product_modal?product_name=&parentsLowNo=1 HTTP/1.1" 200 10183
0:0:0:0:0:0:0:1 - - [29/Oct/2020:17:15:58 +0900] "GET /springmybatis/product_modal?product_name=&parentsLowNo=2 HTTP/1.1" 200 10183
0:0:0:0:0:0:0:1 - - [29/Oct/2020:17:16:00 +0900] "GET /springmybatis/product_modal?product_name=&parentsLowNo=3 HTTP/1.1" 200 10183
0:0:0:0:0:0:0:1 - - [29/Oct/2020:17:16:04 +0900] "GET /springmybatis/product_modal?product_name=&parentsLowNo=4 HTTP/1.1" 200 10183
0:0:0:0:0:0:0:1 - - [29/Oct/2020:17:16:37 +0900] "GET /springmybatis/invoice_insertform HTTP/1.1" 200 34212
0:0:0:0:0:0:0:1 - - [29/Oct/2020:17:16:37 +0900] "GET /springmybatis/css/custom.css HTTP/1.1" 200 1113
0:0:0:0:0:0:0:1 - - [29/Oct/2020:17:16:38 +0900] "GET /springmybatis/css/bootstrap.css HTTP/1.1" 200 146010
0:0:0:0:0:0:0:1 - - [29/Oct/2020:17:16:38 +0900] "GET /springmybatis/css/bootstrap.css.map HTTP/1.1" 200 389287
0:0:0:0:0:0:0:1 - - [29/Oct/2020:17:16:39 +0900] "GET /springmybatis/product_modal?product_name=&parentsLowNo=0 HTTP/1.1" 200 10183
0:0:0:0:0:0:0:1 - - [29/Oct/2020:17:16:42 +0900] "GET /springmybatis/product_modal?product_name=&parentsLowNo=1 HTTP/1.1" 200 10183
0:0:0:0:0:0:0:1 - - [29/Oct/2020:17:16:44 +0900] "GET /springmybatis/product_modal?product_name=&parentsLowNo=2 HTTP/1.1" 200 10183
0:0:0:0:0:0:0:1 - - [29/Oct/2020:17:17:25 +0900] "POST /springmybatis/invoice_insert HTTP/1.1" 302 -
0:0:0:0:0:0:0:1 - - [29/Oct/2020:17:17:25 +0900] "GET /springmybatis/invoice_list HTTP/1.1" 200 8531
0:0:0:0:0:0:0:1 - - [29/Oct/2020:17:19:47 +0900] "GET /springmybatis/invoice_insertform HTTP/1.1" 200 34214
0:0:0:0:0:0:0:1 - - [29/Oct/2020:17:19:57 +0900] "GET /springmybatis/invoice_insertform HTTP/1.1" 200 34212
0:0:0:0:0:0:0:1 - - [29/Oct/2020:17:20:12 +0900] "GET /springmybatis/product_modal?product_name=&parentsLowNo=0 HTTP/1.1" 200 10183
0:0:0:0:0:0:0:1 - - [29/Oct/2020:17:20:16 +0900] "GET /springmybatis/product_modal?product_name=&parentsLowNo=1 HTTP/1.1" 200 10183
0:0:0:0:0:0:0:1 - - [29/Oct/2020:17:20:29 +0900] "GET /springmybatis/invoice_insertform HTTP/1.1" 200 34242
0:0:0:0:0:0:0:1 - - [29/Oct/2020:17:20:31 +0900] "GET /springmybatis/product_modal?product_name=&parentsLowNo=0 HTTP/1.1" 200 10183
0:0:0:0:0:0:0:1 - - [29/Oct/2020:17:20:50 +0900] "GET /springmybatis/invoice_insertform HTTP/1.1" 200 34260
0:0:0:0:0:0:0:1 - - [29/Oct/2020:17:20:52 +0900] "GET /springmybatis/product_modal?product_name=&parentsLowNo=0 HTTP/1.1" 200 10183
0:0:0:0:0:0:0:1 - - [29/Oct/2020:17:27:24 +0900] "GET /springmybatis/invoice_insertform HTTP/1.1" 200 34110
0:0:0:0:0:0:0:1 - - [29/Oct/2020:17:27:27 +0900] "GET /springmybatis/product_modal?product_name=&parentsLowNo=0 HTTP/1.1" 200 10183
0:0:0:0:0:0:0:1 - - [29/Oct/2020:17:27:43 +0900] "GET /springmybatis/product_modal?product_name=1&parentsLowNo=0 HTTP/1.1" 200 10183
0:0:0:0:0:0:0:1 - - [29/Oct/2020:17:32:10 +0900] "GET /springmybatis/invoice_insertform HTTP/1.1" 200 33121
0:0:0:0:0:0:0:1 - - [29/Oct/2020:17:32:14 +0900] "GET /springmybatis/product_modal?product_name=1&parentsLowNo=0 HTTP/1.1" 200 10183
0:0:0:0:0:0:0:1 - - [29/Oct/2020:17:32:14 +0900] "GET /springmybatis/product_modal?product_name=1&parentsLowNo=0 HTTP/1.1" 200 10183
0:0:0:0:0:0:0:1 - - [29/Oct/2020:17:32:20 +0900] "GET /springmybatis/product_modal?product_name=&parentsLowNo=1 HTTP/1.1" 200 10183
0:0:0:0:0:0:0:1 - - [29/Oct/2020:17:32:23 +0900] "GET /springmybatis/product_modal?product_name=3&parentsLowNo=2 HTTP/1.1" 200 10183
0:0:0:0:0:0:0:1 - - [29/Oct/2020:17:32:23 +0900] "GET /springmybatis/product_modal?product_name=3&parentsLowNo=2 HTTP/1.1" 200 10183
0:0:0:0:0:0:0:1 - - [29/Oct/2020:17:33:40 +0900] "GET /springmybatis/invoice_insertform HTTP/1.1" 200 33120
0:0:0:0:0:0:0:1 - - [29/Oct/2020:17:33:44 +0900] "GET /springmybatis/product_modal?product_name=&parentsLowNo=0 HTTP/1.1" 200 10183
0:0:0:0:0:0:0:1 - - [29/Oct/2020:17:34:07 +0900] "GET /springmybatis/invoice_insertform HTTP/1.1" 200 33147
0:0:0:0:0:0:0:1 - - [29/Oct/2020:17:34:14 +0900] "GET /springmybatis/product_modal?product_name=12&parentsLowNo=0 HTTP/1.1" 200 10183
0:0:0:0:0:0:0:1 - - [29/Oct/2020:17:34:16 +0900] "GET /springmybatis/product_modal?product_name=12&parentsLowNo=0 HTTP/1.1" 200 10183
0:0:0:0:0:0:0:1 - - [29/Oct/2020:17:34:38 +0900] "GET /springmybatis/product_modal?product_name=&parentsLowNo=1 HTTP/1.1" 200 10183
0:0:0:0:0:0:0:1 - - [29/Oct/2020:17:34:39 +0900] "GET /springmybatis/product_modal?product_name=12&parentsLowNo=0 HTTP/1.1" 200 10183
0:0:0:0:0:0:0:1 - - [29/Oct/2020:17:34:44 +0900] "GET /springmybatis/product_modal?product_name=1&parentsLowNo=0 HTTP/1.1" 200 10183
0:0:0:0:0:0:0:1 - - [29/Oct/2020:17:34:46 +0900] "GET /springmybatis/product_modal?product_name=1&parentsLowNo=0 HTTP/1.1" 200 10183
0:0:0:0:0:0:0:1 - - [29/Oct/2020:17:35:06 +0900] "GET /springmybatis/product_modal?product_name=5&parentsLowNo=0 HTTP/1.1" 200 10183
0:0:0:0:0:0:0:1 - - [29/Oct/2020:17:35:08 +0900] "GET /springmybatis/product_modal?product_name=5&parentsLowNo=0 HTTP/1.1" 200 10183
0:0:0:0:0:0:0:1 - - [29/Oct/2020:17:35:36 +0900] "GET /springmybatis/product_modal?product_name=&parentsLowNo=2 HTTP/1.1" 200 10183
0:0:0:0:0:0:0:1 - - [29/Oct/2020:17:35:42 +0900] "GET /springmybatis/product_modal?product_name=&parentsLowNo=3 HTTP/1.1" 200 10183
0:0:0:0:0:0:0:1 - - [29/Oct/2020:17:35:47 +0900] "GET /springmybatis/product_modal?product_name=5&parentsLowNo=0 HTTP/1.1" 200 10183
0:0:0:0:0:0:0:1 - - [29/Oct/2020:17:35:52 +0900] "GET /springmybatis/product_modal?product_name=1&parentsLowNo=0 HTTP/1.1" 200 10183
0:0:0:0:0:0:0:1 - - [29/Oct/2020:17:35:53 +0900] "GET /springmybatis/product_modal?product_name=1&parentsLowNo=0 HTTP/1.1" 200 10183
0:0:0:0:0:0:0:1 - - [29/Oct/2020:17:36:23 +0900] "GET /springmybatis/invoice_insertform HTTP/1.1" 200 33142
0:0:0:0:0:0:0:1 - - [29/Oct/2020:17:36:27 +0900] "GET /springmybatis/product_modal?product_name=1&parentsLowNo=0 HTTP/1.1" 200 10183
0:0:0:0:0:0:0:1 - - [29/Oct/2020:17:36:31 +0900] "GET /springmybatis/product_modal?product_name=&parentsLowNo=1 HTTP/1.1" 200 10183
0:0:0:0:0:0:0:1 - - [29/Oct/2020:17:36:50 +0900] "GET /springmybatis/product_modal?product_name=2&parentsLowNo=0 HTTP/1.1" 200 10183
0:0:0:0:0:0:0:1 - - [29/Oct/2020:17:37:02 +0900] "GET /springmybatis/product_modal?product_name=&parentsLowNo=2 HTTP/1.1" 200 10183
0:0:0:0:0:0:0:1 - - [29/Oct/2020:17:38:01 +0900] "GET /springmybatis/product_modal?product_name=r&parentsLowNo=3 HTTP/1.1" 200 10183
0:0:0:0:0:0:0:1 - - [29/Oct/2020:17:39:04 +0900] "GET /springmybatis/product_modal?product_name=R&parentsLowNo=3 HTTP/1.1" 200 10183
127.0.0.1 - - [29/Oct/2020:18:00:13 +0900] "GET / HTTP/1.1" 404 807
0:0:0:0:0:0:0:1 - - [29/Oct/2020:18:00:22 +0900] "GET /springmybatis/invoice_insertform HTTP/1.1" 200 33077
0:0:0:0:0:0:0:1 - - [29/Oct/2020:18:00:24 +0900] "GET /springmybatis/product_modal?product_name=&parentsLowNo=0 HTTP/1.1" 500 17216
0:0:0:0:0:0:0:1 - - [29/Oct/2020:18:04:27 +0900] "GET /springmybatis/invoice_insertform HTTP/1.1" 200 33077
0:0:0:0:0:0:0:1 - - [29/Oct/2020:18:04:29 +0900] "GET /springmybatis/product_modal?product_name=&parentsLowNo=0 HTTP/1.1" 200 10202
0:0:0:0:0:0:0:1 - - [29/Oct/2020:18:04:39 +0900] "GET /springmybatis/product_modal?product_name=A&parentsLowNo=1 HTTP/1.1" 200 5054
